{
	"telegram": {
		"name": "bot1",
		"token": "token1",
		"url": "https://api.telegram.org/",
		"channel": "ExeCrypto"
	},
	"token": "NDA0MDUzNzc5NzYwMDIxNTEy.DUQQBA.QB-SQBcDu98shSu5yViDIcqvzrs",
	"discordUrl": "https://discordapp.com/api",
  "massMessageRole": "PumpAdmin",
	"inviteChannelName": "invite-channel",
  "channels": [
      {
        "name": "crypto-talk",
        "delay": 6000
      },
      {
          "name": "bronze",
          "delay": 5500
      },
      {
          "name": "silver",
          "delay": 5000
      },
      {
          "name": "gold",
          "delay": 4500
      },
      {
          "name": "platinum",
          "delay": 3500
      },
      {
          "name": "ruby",
          "delay": 2500
      },
      {
          "name": "sapphire",
          "delay": 0
      }
  ],
	"ranks": [
		{
			"name": "Bronze",
			"invitesNeeded": "1",
			"rankNumber": 1
		},
		{
			"name": "Silver",
			"invitesNeeded": "5",
			"rankNumber": 2
		},
		{
			"name": "Gold",
			"invitesNeeded": "15",
			"rankNumber": 3
		},
		{
			"name": "Platinum",
			"invitesNeeded": "75",
			"rankNumber": 4
		},
		{
			"name": "Ruby",
			"invitesNeeded": "250",
			"rankNumber": 5
		},
		{
			"name": "Sapphire",
			"invitesNeeded": "1000",
			"rankNumber": 6
		}
	]
}
